^E:\C++_SKILLBOX\HOMEWORK11\HOMEWORK11\DEBUG\HOMEWORK11.OBJ
E:\C++_SKILLBOX\HOMEWORK11\HOMEWORK11\DEBUG\HOMEWORK11.EXE
E:\C++_SKILLBOX\HOMEWORK11\HOMEWORK11\DEBUG\HOMEWORK11.ILK
E:\C++_SKILLBOX\HOMEWORK11\HOMEWORK11\DEBUG\HOMEWORK11.PDB
